多周期CPU/code（实验源码）/MultiCycleCPU.sim/sim_1/behav/xsim/PC.vcd
$date
   Thu Dec 19 19:58:21 2024
$end
$version
  2017.4
$end
$timescale
  1ps
$end
$scope module PC_sim $end
$var reg 1 ! CLK $end
$var reg 1 " reset $end
$var reg 1 # PCWre $end
$var reg 32 $ immExt [31:0] $end
$var reg 32 % JumpPC [31:0] $end
$var reg 32 & ReadData1 [31:0] $end
$var wire 32 ' address [31:0] $end
$var wire 32 ( nextaddress [31:0] $end
$var wire 32 ) PC4 [31:0] $end
$scope module uut $end
$var wire 1 * CLK $end
$var wire 1 + reset $end
$var wire 1 , PCWre $end
$var wire 2 - PCSrc [1:0] $end
$var wire 32 . immExt [31:0] $end
$var wire 32 / JumpPC [31:0] $end
$var wire 32 0 ReadData1 [31:0] $end
$var reg 32 1 address [31:0] $end
$var wire 32 ( nextaddress [31:0] $end
$var wire 32 ) PC4 [31:0] $end
$upscope $end
$upscope $end
$enddefinitions $end
#0
$dumpvars
0!
0"
0#
b0 $
bx %
bx &
b0 '
bx (
b100 )
0*
0+
0,
bz -
b0 .
bx /
bx 0
b0 1
$end
#15000
1!
1*
#30000
0!
0*
b0 1
#45000
1!
1*
#50000
1"
1#
b100 $
1+
1,
b100 .
#60000
0!
bx '
bx )
0*
bx 1
#75000
1!
1*
#90000
0!
0*
bx 1
#100000
b100 $
#105000
1!
1*
#120000
0!
0*
bx 1
#135000
1!
1*
#150000
0!
b100 $
0*
bx 1
#165000
1!
1*
#180000
0!
0*
bx 1
#195000
1!
1*
#200000
b100 $
#210000
0!
0*
bx 1
#225000
1!
1*
#240000
0!
0*
bx 1
#250000
b1000 %
b1000 /
#255000
1!
1*
#270000
0!
0*
bx 1
